YOUR NAME - Analysis of the National Park Visits
…
rmarkdown::paged_table(alltrails)

#Number of Trails per state
TrailsperPark <-alltrails%>%
  group_by(State)%>%
  summarize(trails = n_distinct(Park))
TrailsperPark%>%
  arrange(desc(trails))

# A tibble: 54 × 2
   State trails
   <chr>  <int>
 1 CA        24
 2 DC        21
 3 NY        20
 4 AZ        19
 5 AK        15
 6 PA        15
 7 VA        15
 8 MA        13
 9 NM        13
10 TX        13
# ℹ 44 more rows
…
0

0.00

471616

▇▁▁▁▁

#Total Visits per Year in each Region 
alltrails%>%
  group_by(Year, Region)%>%
  summarize(Total_Visits = n_distinct(Recreation.Visits))

# A tibble: 301 × 3
# Groups:   Year [43]
    Year Region           Total_Visits
   <dbl> <chr>                   <int>
 1  1979 Alaska                     46
 2  1979 Intermountain             842
 3  1979 Midwest                   432
 4  1979 National Capital          276
 5  1979 Northeast                 548
 6  1979 Pacific West              456
 7  1979 Southeast                 537
 8  1980 Alaska                     45
 9  1980 Intermountain             828
10  1980 Midwest                   438
# ℹ 291 more rows
…
The number of parks found in each region.

To see a map of the Regions click here.

5.3 Visits By Region

regionvis <- alltrails%>%
  group_by(Region, Year)%>%
  summarize(visits = sum(Recreation.Visits))
regionvis

# A tibble: 301 × 3
# Groups:   Region [7]
   Region  Year  visits
   <chr>  <dbl>   <dbl>
 1 Alaska  1979  421985
 2 Alaska  1980  395933
 3 Alaska  1981  441763
 4 Alaska  1982  625260
 5 Alaska  1983  661884
 6 Alaska  1984  780822
 7 Alaska  1985  885359
 8 Alaska  1986 1034520
 9 Alaska  1987 1061067
10 Alaska  1988 1117711
# ℹ 291 more rows
…
